{
  "project_info": {
    "project_number": "844260538494",
    "project_id": "flutterca-9f19c",
    "storage_bucket": "flutterca-9f19c.appspot.com"
  },
  "client": [
    {
      "client_info": {
        "mobilesdk_app_id": "1:844260538494:android:0efd438f922acabcf5402f",
        "android_client_info": {
          "package_name": "com.example.costaccountant_app"
        }
      },
      "oauth_client": [
        {
          "client_id": "844260538494-jjbe8gd6964724ghfctbgiskf5cucjqc.apps.googleusercontent.com",
          "client_type": 3
        }
      ],
      "api_key": [
        {
          "current_key": "AIzaSyBF9b0fYUWuVro9xNfBhw7UUwCj2SIeJnw"
        }
      ],
      "services": {
        "appinvite_service": {
          "other_platform_oauth_client": [
            {
              "client_id": "844260538494-jjbe8gd6964724ghfctbgiskf5cucjqc.apps.googleusercontent.com",
              "client_type": 3
            }
          ]
        }
      }
    }
  ],
  "configuration_version": "1"
}